Library\Bee\artifacts\mvdfrm\UnityEditor.UI.ref.dll_4C98D3F7040CD4F5.mvfrm
Library\Bee\artifacts\mvdfrm\UnityEngine.UI.ref.dll_08FEAA520A2EFD60.mvfrm
Library\Bee\artifacts\mvdfrm\UnityEditor.Graphs.dll_B51AEED13905D9E9.mvfrm
Library\Bee\artifacts\mvdfrm\UnityEditor.CoreModule.dll_D5680A5C5A4AC6B7.mvfrm
Library\Bee\artifacts\mvdfrm\UnityEditor.DeviceSimulatorModule.dll_8DC4F0B3E078A5BA.mvfrm
Library\Bee\artifacts\mvdfrm\UnityEditor.DiagnosticsModule.dll_B281E527CD99D988.mvfrm
Library\Bee\artifacts\mvdfrm\UnityEditor.dll_04DAEC9F6243852E.mvfrm
Library\Bee\artifacts\mvdfrm\UnityEditor.GraphViewModule.dll_9250648D69351C5F.mvfrm
Library\Bee\artifacts\mvdfrm\UnityEditor.PackageManagerUIModule.dll_BF31A813EBA9A553.mvfrm
Library\Bee\artifacts\mvdfrm\UnityEditor.QuickSearchModule.dll_3D9166352670D5E1.mvfrm
Library\Bee\artifacts\mvdfrm\UnityEditor.SceneTemplateModule.dll_C751C32EE5030A82.mvfrm
Library\Bee\artifacts\mvdfrm\UnityEditor.TextCoreFontEngineModule.dll_7D406D6BD8D07E55.mvfrm
Library\Bee\artifacts\mvdfrm\UnityEditor.TextCoreTextEngineModule.dll_C528A3DD68543773.mvfrm
Library\Bee\artifacts\mvdfrm\UnityEditor.UIBuilderModule.dll_E6D911A9DBED9593.mvfrm
Library\Bee\artifacts\mvdfrm\UnityEditor.UIElementsModule.dll_C0695C5BBE80D093.mvfrm
Library\Bee\artifacts\mvdfrm\UnityEditor.UIElementsSamplesModule.dll_22903B98711E1B0A.mvfrm
Library\Bee\artifacts\mvdfrm\UnityEditor.UIServiceModule.dll_1FCB230CC524E5AD.mvfrm
Library\Bee\artifacts\mvdfrm\UnityEditor.UnityConnectModule.dll_CF20CE0C0413D0ED.mvfrm
Library\Bee\artifacts\mvdfrm\UnityEngine.AccessibilityModule.dll_F9F72EC5E579321F.mvfrm
Library\Bee\artifacts\mvdfrm\UnityEngine.AnimationModule.dll_60D5E0B64391F105.mvfrm
Library\Bee\artifacts\mvdfrm\UnityEngine.ARModule.dll_BE9AE84F9FDFC2F4.mvfrm
Library\Bee\artifacts\mvdfrm\UnityEngine.AudioModule.dll_912F786CD33408B7.mvfrm
Library\Bee\artifacts\mvdfrm\UnityEngine.ClusterInputModule.dll_4EBD4321B59BA3B3.mvfrm
Library\Bee\artifacts\mvdfrm\UnityEngine.ClusterRendererModule.dll_9371B3255033B33E.mvfrm
Library\Bee\artifacts\mvdfrm\UnityEngine.CoreModule.dll_F888DDAF025031E2.mvfrm
Library\Bee\artifacts\mvdfrm\UnityEngine.CrashReportingModule.dll_685D93E50527C6BA.mvfrm
Library\Bee\artifacts\mvdfrm\UnityEngine.DirectorModule.dll_2566A5E08C7AE87F.mvfrm
Library\Bee\artifacts\mvdfrm\UnityEngine.dll_377F3377C0B71213.mvfrm
Library\Bee\artifacts\mvdfrm\UnityEngine.DSPGraphModule.dll_2AB80749FEDBB9A0.mvfrm
Library\Bee\artifacts\mvdfrm\UnityEngine.GameCenterModule.dll_68FF8F49CDE1305A.mvfrm
Library\Bee\artifacts\mvdfrm\UnityEngine.GIModule.dll_9D646C59DE714C45.mvfrm
Library\Bee\artifacts\mvdfrm\UnityEngine.GridModule.dll_D5F9F99D1AA4C7D9.mvfrm
Library\Bee\artifacts\mvdfrm\UnityEngine.HotReloadModule.dll_E21E9EBC1EC50C87.mvfrm
Library\Bee\artifacts\mvdfrm\UnityEngine.IMGUIModule.dll_C98F17D399659C98.mvfrm
Library\Bee\artifacts\mvdfrm\UnityEngine.InputLegacyModule.dll_12BFB44520C940C4.mvfrm
Library\Bee\artifacts\mvdfrm\UnityEngine.InputModule.dll_F7A5401D496C2D5B.mvfrm
Library\Bee\artifacts\mvdfrm\UnityEngine.LocalizationModule.dll_8D0A0D744D1796AC.mvfrm
Library\Bee\artifacts\mvdfrm\UnityEngine.PerformanceReportingModule.dll_924DD5612CAE28A1.mvfrm
Library\Bee\artifacts\mvdfrm\UnityEngine.PhysicsModule.dll_369866F444230068.mvfrm
Library\Bee\artifacts\mvdfrm\UnityEngine.ProfilerModule.dll_57ACDF1725D46F8C.mvfrm
Library\Bee\artifacts\mvdfrm\UnityEngine.RuntimeInitializeOnLoadManagerInitializerModule.dll_E6D9735F13748D63.mvfrm
Library\Bee\artifacts\mvdfrm\UnityEngine.SharedInternalsModule.dll_8374EFAB49866682.mvfrm
Library\Bee\artifacts\mvdfrm\UnityEngine.SpriteMaskModule.dll_522C01D9EF50C5D4.mvfrm
Library\Bee\artifacts\mvdfrm\UnityEngine.SpriteShapeModule.dll_9ADBC6813E79C2DD.mvfrm
Library\Bee\artifacts\mvdfrm\UnityEngine.StreamingModule.dll_156ACE069319A843.mvfrm
Library\Bee\artifacts\mvdfrm\UnityEngine.SubstanceModule.dll_F215E24FDE6CA651.mvfrm
Library\Bee\artifacts\mvdfrm\UnityEngine.TextCoreFontEngineModule.dll_FB9FE8BEEBCE3D20.mvfrm
Library\Bee\artifacts\mvdfrm\UnityEngine.TextCoreTextEngineModule.dll_43881F307B51F63E.mvfrm
Library\Bee\artifacts\mvdfrm\UnityEngine.TextRenderingModule.dll_9D35D791B0583F00.mvfrm
Library\Bee\artifacts\mvdfrm\UnityEngine.TLSModule.dll_80D37025A56AF73C.mvfrm
Library\Bee\artifacts\mvdfrm\UnityEngine.UIModule.dll_009BC1799F0969D7.mvfrm
Library\Bee\artifacts\mvdfrm\UnityEngine.UNETModule.dll_8B2F25984F5F275B.mvfrm
Library\Bee\artifacts\mvdfrm\UnityEngine.UnityConnectModule.dll_BC80521AFE9BD198.mvfrm
Library\Bee\artifacts\mvdfrm\UnityEngine.UnityCurlModule.dll_93F281E7B3A5E2F2.mvfrm
Library\Bee\artifacts\mvdfrm\UnityEngine.UnityTestProtocolModule.dll_DE52F18ACB197060.mvfrm
Library\Bee\artifacts\mvdfrm\UnityEngine.VFXModule.dll_01B208947BD860A9.mvfrm
Library\Bee\artifacts\mvdfrm\UnityEngine.VirtualTexturingModule.dll_2E38111835D09600.mvfrm
Library\Bee\artifacts\mvdfrm\UnityEditor.WindowsStandalone.Extensions.dll_D1C4979FA6779559.mvfrm